<?xml version="1.0" encoding="utf-8"?>
<svg version="1.1" id="Layer_1"
xmlns="http://www.w3.org/2000/svg"
xmlns:xlink="http://www.w3.org/1999/xlink"
width="59px" height="9px"
xml:space="preserve">
<g id="1498" transform="matrix(1, 0, 0, 1, 0.6, 1.6)">
<path style="fill:#FFFF00;fill-opacity:1" d="M57.95,-1.6L57.95 6.95L-0.6 6.95L-0.6 -1.6L57.95 -1.6" />
</g>
</svg>
