<?xml version="1.0" encoding="utf-8"?>
<svg version="1.1" id="Layer_1"
xmlns="http://www.w3.org/2000/svg"
xmlns:xlink="http://www.w3.org/1999/xlink"
width="33px" height="17px"
xml:space="preserve">
<g id="54" transform="matrix(1, 0, 0, 1, 8.9, 16)">
<path style="fill:#FF0000;fill-opacity:1" d="M18.65,-11.3Q23.4 -6.55 23.4 0.15L7.25 0.15L-8.9 0.15Q-8.9 -6.55 -4.2 -11.3Q0.55 -16 7.25 -16Q13.95 -16 18.65 -11.3" />
</g>
</svg>
