<?xml version="1.0" encoding="utf-8"?>
<svg version="1.1" id="Layer_1"
xmlns="http://www.w3.org/2000/svg"
xmlns:xlink="http://www.w3.org/1999/xlink"
width="21px" height="17px"
xml:space="preserve">
<g id="39" transform="matrix(1, 0, 0, 1, -3.05, 16)">
<path style="fill:#FF0000;fill-opacity:1" d="M20.45,-9.15Q23.4 -4.95 23.4 0.15L7.25 0.15L3.05 -15.45Q8 -16.75 12.75 -15.05Q17.55 -13.3 20.45 -9.15" />
</g>
</svg>
