<?xml version="1.0" encoding="utf-8"?>
<svg version="1.1" id="Layer_1"
xmlns="http://www.w3.org/2000/svg"
xmlns:xlink="http://www.w3.org/1999/xlink"
width="161px" height="125px"
xml:space="preserve">
<g id="109" transform="matrix(1, 0, 0, 1, -30.65, -43.8)">
<path style="fill:none;stroke-width:0.1;stroke-linecap:round;stroke-linejoin:round;stroke-miterlimit:3;stroke:#000000;stroke-opacity:0.705882" d="M190.7,138.25Q190.1 139.95 188.25 140.2M97.6,63.55L97.6 43.85M37.05,43.85Q36.15 45.45 35.15 48Q34.15 49.8 32.25 49.8L31.4 49.6L30.7 49.45L30.7 49.15M97.6,167.8L97.6 79.3" />
</g>
</svg>
