<?xml version="1.0" encoding="utf-8"?>
<svg version="1.1" id="Layer_1"
xmlns="http://www.w3.org/2000/svg"
xmlns:xlink="http://www.w3.org/1999/xlink"
width="54px" height="23px"
xml:space="preserve">
<g id="1387" transform="matrix(1, 0, 0, 1, 0, 1.5)">
<path style="fill:#D6D6D6;fill-opacity:0" d="M53.15,21.35L0 20.3L0 -1.5L51.15 7.5L53.15 21.35" />
</g>
</svg>
