<?xml version="1.0" encoding="utf-8"?>
<svg version="1.1" id="Layer_1"
xmlns="http://www.w3.org/2000/svg"
xmlns:xlink="http://www.w3.org/1999/xlink"
width="91px" height="12px"
xml:space="preserve">
<g id="925" transform="matrix(1, 0, 0, 1, 16.15, 21.05)">
<path style="fill:#000000;fill-opacity:1" d="M28.95,-12.4L71.05 -20.85L74.1 -20.85L71.05 -17.05L28.1 -9.7L28.95 -12.4M15.45,-21.05L16.2 -21.05L27.05 -12.6L27.3 -9.9L27.1 -10L27.2 -9.7L-13.3 -17.05L-16.15 -20.85L-13.3 -20.85L22.2 -13.3L16.2 -17.25L15.45 -21.05" />
</g>
</svg>
