<?xml version="1.0" encoding="utf-8"?>
<svg version="1.1" id="Layer_1"
xmlns="http://www.w3.org/2000/svg"
xmlns:xlink="http://www.w3.org/1999/xlink"
width="115px" height="108px"
xml:space="preserve">
<g id="1035" transform="matrix(1, 0, 0, 1, 39.6, 47.7)">
<path style="fill:#483E23;fill-opacity:0.00784314" d="M-39.6,-47.7L74.9 -47.7L74.9 59.7L-39.6 59.7L-39.6 -47.7" />
</g>
</svg>
