<?xml version="1.0" encoding="utf-8"?>
<svg version="1.1" id="Layer_1"
xmlns="http://www.w3.org/2000/svg"
xmlns:xlink="http://www.w3.org/1999/xlink"
width="18px" height="54px"
xml:space="preserve">
<g id="1708" transform="matrix(1, 0, 0, 1, 4.75, 27)">
<path style="fill:#FFCCCC;fill-opacity:1" d="M12.45,-26.95L2.35 0.2Q2.15 0.25 7.6 13.65L13.05 27Q8.65 21.5 4.2 15.4Q-4.7 3.2 -4.75 0.35Q-4.85 -3 3.8 -15.4Q12.45 -27.8 12.45 -26.95" />
</g>
</svg>
