<?xml version="1.0" encoding="utf-8"?>
<svg version="1.1" id="Layer_1"
xmlns="http://www.w3.org/2000/svg"
xmlns:xlink="http://www.w3.org/1999/xlink"
width="17px" height="15px"
xml:space="preserve">
<g id="31" transform="matrix(1, 0, 0, 1, -7.25, 14.5)">
<path style="fill:#FF0000;fill-opacity:1" d="M20.85,-8.55Q23.4 -4.55 23.4 0.15L7.25 0.15L14.1 -14.5Q18.35 -12.5 20.85 -8.55" />
</g>
</svg>
