<?xml version="1.0" encoding="utf-8"?>
<svg version="1.1" id="Layer_1"
xmlns="http://www.w3.org/2000/svg"
xmlns:xlink="http://www.w3.org/1999/xlink"
width="166px" height="125px"
xml:space="preserve">
<g id="1633" transform="matrix(1, 0, 0, 1, 44.45, 66.7)">
<path style="fill:#000000;fill-opacity:0.00392157" d="M73,-66.7L73 22.1L120.95 22.1L120.95 57.65L73 57.65L73 57.7L-3 57.7L-3 57.65L-44.45 57.65L-44.45 22.1L-3 22.1L-3 -66.7L73 -66.7" />
</g>
</svg>
