<?xml version="1.0" encoding="utf-8"?>
<svg version="1.1" id="Layer_1"
xmlns="http://www.w3.org/2000/svg"
xmlns:xlink="http://www.w3.org/1999/xlink"
width="315px" height="68px"
xml:space="preserve">
<g id="90" transform="matrix(1, 0, 0, 1, 156.35, 33.4)">
<path style="fill:#000000;fill-opacity:0.901961" d="M157.55,-29.2L150.6 0.3L158.1 29.5L151 33.5L-149.85 33.7L-156.35 29.55L-149.9 0.65L-155.2 -29.7L-147.15 -33.4L150.7 -33.2L157.55 -29.2" />
</g>
</svg>
