<?xml version="1.0" encoding="utf-8"?>
<svg version="1.1" id="Layer_1"
xmlns="http://www.w3.org/2000/svg"
xmlns:xlink="http://www.w3.org/1999/xlink"
width="33px" height="33px"
xml:space="preserve">
<g id="81" transform="matrix(1, 0, 0, 1, 8.95, 16.05)">
<path style="fill:#FF0000;fill-opacity:1" d="M-0.85,-13.85Q4.25 -16.8 10.05 -15.8Q15.85 -14.75 19.6 -10.25Q23.4 -5.75 23.4 0.15L7.25 0.15L19.6 10.55Q15.85 15.05 10.05 16.05Q4.25 17.1 -0.85 14.15Q-5.9 11.2 -7.95 5.65Q-9.95 0.15 -7.95 -5.4Q-5.9 -10.9 -0.85 -13.85" />
</g>
</svg>
