<?xml version="1.0" encoding="utf-8"?>
<svg version="1.1" id="Layer_1"
xmlns="http://www.w3.org/2000/svg"
xmlns:xlink="http://www.w3.org/1999/xlink"
width="12px" height="32px"
xml:space="preserve">
<g id="849" transform="matrix(1, 0, 0, 1, 1.05, 10.3)">
<path style="fill:#0B0B0B;fill-opacity:1" d="M3.9,-8.85L3.85 -7.4L6.85 -3.95L7.05 0.05Q10.4 0.55 10.45 4.3L10.45 21.35L0 21.35L0 4.3Q0.1 0.25 4.05 0L4.05 -2.5L1.7 -5.35L0.45 -5.35L-1.05 -7L2.75 -10.3L3.9 -8.85" />
</g>
</svg>
