<?xml version="1.0" encoding="utf-8"?>
<svg version="1.1" id="Layer_1"
xmlns="http://www.w3.org/2000/svg"
xmlns:xlink="http://www.w3.org/1999/xlink"
width="19px" height="54px"
xml:space="preserve">
<g id="1705" transform="matrix(1, 0, 0, 1, 5.3, 26.6)">
<path style="fill:#000000;fill-opacity:1" d="M9.5,-16Q6.6 -4.55 6.6 0Q6.6 4.55 9.7 16.05L12.8 26.65L3.8 15.2Q-5.25 3.2 -5.3 0.35Q-5.4 -3 3.5 -15.2Q12.4 -27.4 12.4 -26.55L9.5 -16" />
</g>
</svg>
